^C:\USERS\BOS.BUTINT\DOWNLOADS\SPOUTCAM-MASTER\SPOUTCAM-MASTER\BASECLASSES\WINPROJ2017\X64\RELEASE\AMEXTRA.OBJ|C:\USERS\BOS.BUTINT\DOWNLOADS\SPOUTCAM-MASTER\SPOUTCAM-MASTER\BASECLASSES\WINPROJ2017\X64\RELEASE\AMFILTER.OBJ|C:\USERS\BOS.BUTINT\DOWNLOADS\SPOUTCAM-MASTER\SPOUTCAM-MASTER\BASECLASSES\WINPROJ2017\X64\RELEASE\AMVIDEO.OBJ|C:\USERS\BOS.BUTINT\DOWNLOADS\SPOUTCAM-MASTER\SPOUTCAM-MASTER\BASECLASSES\WINPROJ2017\X64\RELEASE\ARITHUTIL.OBJ|C:\USERS\BOS.BUTINT\DOWNLOADS\SPOUTCAM-MASTER\SPOUTCAM-MASTER\BASECLASSES\WINPROJ2017\X64\RELEASE\COMBASE.OBJ|C:\USERS\BOS.BUTINT\DOWNLOADS\SPOUTCAM-MASTER\SPOUTCAM-MASTER\BASECLASSES\WINPROJ2017\X64\RELEASE\CPROP.OBJ|C:\USERS\BOS.BUTINT\DOWNLOADS\SPOUTCAM-MASTER\SPOUTCAM-MASTER\BASECLASSES\WINPROJ2017\X64\RELEASE\CTLUTIL.OBJ|C:\USERS\BOS.BUTINT\DOWNLOADS\SPOUTCAM-MASTER\SPOUTCAM-MASTER\BASECLASSES\WINPROJ2017\X64\RELEASE\DDMM.OBJ|C:\USERS\BOS.BUTINT\DOWNLOADS\SPOUTCAM-MASTER\SPOUTCAM-MASTER\BASECLASSES\WINPROJ2017\X64\RELEASE\DLLENTRY.OBJ|C:\USERS\BOS.BUTINT\DOWNLOADS\SPOUTCAM-MASTER\SPOUTCAM-MASTER\BASECLASSES\WINPROJ2017\X64\RELEASE\DLLSETUP.OBJ|C:\USERS\BOS.BUTINT\DOWNLOADS\SPOUTCAM-MASTER\SPOUTCAM-MASTER\BASECLASSES\WINPROJ2017\X64\RELEASE\MTYPE.OBJ|C:\USERS\BOS.BUTINT\DOWNLOADS\SPOUTCAM-MASTER\SPOUTCAM-MASTER\BASECLASSES\WINPROJ2017\X64\RELEASE\OUTPUTQ.OBJ|C:\USERS\BOS.BUTINT\DOWNLOADS\SPOUTCAM-MASTER\SPOUTCAM-MASTER\BASECLASSES\WINPROJ2017\X64\RELEASE\PERFLOG.OBJ|C:\USERS\BOS.BUTINT\DOWNLOADS\SPOUTCAM-MASTER\SPOUTCAM-MASTER\BASECLASSES\WINPROJ2017\X64\RELEASE\PSTREAM.OBJ|C:\USERS\BOS.BUTINT\DOWNLOADS\SPOUTCAM-MASTER\SPOUTCAM-MASTER\BASECLASSES\WINPROJ2017\X64\RELEASE\PULLPIN.OBJ|C:\USERS\BOS.BUTINT\DOWNLOADS\SPOUTCAM-MASTER\SPOUTCAM-MASTER\BASECLASSES\WINPROJ2017\X64\RELEASE\REFCLOCK.OBJ|C:\USERS\BOS.BUTINT\DOWNLOADS\SPOUTCAM-MASTER\SPOUTCAM-MASTER\BASECLASSES\WINPROJ2017\X64\RELEASE\RENBASE.OBJ|C:\USERS\BOS.BUTINT\DOWNLOADS\SPOUTCAM-MASTER\SPOUTCAM-MASTER\BASECLASSES\WINPROJ2017\X64\RELEASE\SCHEDULE.OBJ|C:\USERS\BOS.BUTINT\DOWNLOADS\SPOUTCAM-MASTER\SPOUTCAM-MASTER\BASECLASSES\WINPROJ2017\X64\RELEASE\SEEKPT.OBJ|C:\USERS\BOS.BUTINT\DOWNLOADS\SPOUTCAM-MASTER\SPOUTCAM-MASTER\BASECLASSES\WINPROJ2017\X64\RELEASE\SOURCE.OBJ|C:\USERS\BOS.BUTINT\DOWNLOADS\SPOUTCAM-MASTER\SPOUTCAM-MASTER\BASECLASSES\WINPROJ2017\X64\RELEASE\STRMCTL.OBJ|C:\USERS\BOS.BUTINT\DOWNLOADS\SPOUTCAM-MASTER\SPOUTCAM-MASTER\BASECLASSES\WINPROJ2017\X64\RELEASE\SYSCLOCK.OBJ|C:\USERS\BOS.BUTINT\DOWNLOADS\SPOUTCAM-MASTER\SPOUTCAM-MASTER\BASECLASSES\WINPROJ2017\X64\RELEASE\TRANSFRM.OBJ|C:\USERS\BOS.BUTINT\DOWNLOADS\SPOUTCAM-MASTER\SPOUTCAM-MASTER\BASECLASSES\WINPROJ2017\X64\RELEASE\TRANSIP.OBJ|C:\USERS\BOS.BUTINT\DOWNLOADS\SPOUTCAM-MASTER\SPOUTCAM-MASTER\BASECLASSES\WINPROJ2017\X64\RELEASE\VIDEOCTL.OBJ|C:\USERS\BOS.BUTINT\DOWNLOADS\SPOUTCAM-MASTER\SPOUTCAM-MASTER\BASECLASSES\WINPROJ2017\X64\RELEASE\VTRANS.OBJ|C:\USERS\BOS.BUTINT\DOWNLOADS\SPOUTCAM-MASTER\SPOUTCAM-MASTER\BASECLASSES\WINPROJ2017\X64\RELEASE\WINCTRL.OBJ|C:\USERS\BOS.BUTINT\DOWNLOADS\SPOUTCAM-MASTER\SPOUTCAM-MASTER\BASECLASSES\WINPROJ2017\X64\RELEASE\WINUTIL.OBJ|C:\USERS\BOS.BUTINT\DOWNLOADS\SPOUTCAM-MASTER\SPOUTCAM-MASTER\BASECLASSES\WINPROJ2017\X64\RELEASE\WXDEBUG.OBJ|C:\USERS\BOS.BUTINT\DOWNLOADS\SPOUTCAM-MASTER\SPOUTCAM-MASTER\BASECLASSES\WINPROJ2017\X64\RELEASE\WXLIST.OBJ|C:\USERS\BOS.BUTINT\DOWNLOADS\SPOUTCAM-MASTER\SPOUTCAM-MASTER\BASECLASSES\WINPROJ2017\X64\RELEASE\WXUTIL.OBJ
C:\USERS\BOS.BUTINT\DOWNLOADS\SPOUTCAM-MASTER\SPOUTCAM-MASTER\BASECLASSES\WINPROJ2017\X64\RELEASE\AMEXTRA.OBJ
C:\WINDOWS\SYSTEM32\TZRES.DLL
C:\USERS\BOS.BUTINT\DOWNLOADS\SPOUTCAM-MASTER\SPOUTCAM-MASTER\BASECLASSES\WINPROJ2017\X64\RELEASE\AMFILTER.OBJ
C:\USERS\BOS.BUTINT\DOWNLOADS\SPOUTCAM-MASTER\SPOUTCAM-MASTER\BASECLASSES\WINPROJ2017\X64\RELEASE\AMVIDEO.OBJ
C:\USERS\BOS.BUTINT\DOWNLOADS\SPOUTCAM-MASTER\SPOUTCAM-MASTER\BASECLASSES\WINPROJ2017\X64\RELEASE\ARITHUTIL.OBJ
C:\USERS\BOS.BUTINT\DOWNLOADS\SPOUTCAM-MASTER\SPOUTCAM-MASTER\BASECLASSES\WINPROJ2017\X64\RELEASE\COMBASE.OBJ
C:\USERS\BOS.BUTINT\DOWNLOADS\SPOUTCAM-MASTER\SPOUTCAM-MASTER\BASECLASSES\WINPROJ2017\X64\RELEASE\CPROP.OBJ
C:\USERS\BOS.BUTINT\DOWNLOADS\SPOUTCAM-MASTER\SPOUTCAM-MASTER\BASECLASSES\WINPROJ2017\X64\RELEASE\CTLUTIL.OBJ
C:\USERS\BOS.BUTINT\DOWNLOADS\SPOUTCAM-MASTER\SPOUTCAM-MASTER\BASECLASSES\WINPROJ2017\X64\RELEASE\DDMM.OBJ
C:\USERS\BOS.BUTINT\DOWNLOADS\SPOUTCAM-MASTER\SPOUTCAM-MASTER\BASECLASSES\WINPROJ2017\X64\RELEASE\DLLENTRY.OBJ
C:\USERS\BOS.BUTINT\DOWNLOADS\SPOUTCAM-MASTER\SPOUTCAM-MASTER\BASECLASSES\WINPROJ2017\X64\RELEASE\DLLSETUP.OBJ
C:\USERS\BOS.BUTINT\DOWNLOADS\SPOUTCAM-MASTER\SPOUTCAM-MASTER\BASECLASSES\WINPROJ2017\X64\RELEASE\MTYPE.OBJ
C:\USERS\BOS.BUTINT\DOWNLOADS\SPOUTCAM-MASTER\SPOUTCAM-MASTER\BASECLASSES\WINPROJ2017\X64\RELEASE\OUTPUTQ.OBJ
C:\USERS\BOS.BUTINT\DOWNLOADS\SPOUTCAM-MASTER\SPOUTCAM-MASTER\BASECLASSES\WINPROJ2017\X64\RELEASE\PERFLOG.OBJ
C:\USERS\BOS.BUTINT\DOWNLOADS\SPOUTCAM-MASTER\SPOUTCAM-MASTER\BASECLASSES\WINPROJ2017\X64\RELEASE\PSTREAM.OBJ
C:\USERS\BOS.BUTINT\DOWNLOADS\SPOUTCAM-MASTER\SPOUTCAM-MASTER\BASECLASSES\WINPROJ2017\X64\RELEASE\PULLPIN.OBJ
C:\USERS\BOS.BUTINT\DOWNLOADS\SPOUTCAM-MASTER\SPOUTCAM-MASTER\BASECLASSES\WINPROJ2017\X64\RELEASE\REFCLOCK.OBJ
C:\USERS\BOS.BUTINT\DOWNLOADS\SPOUTCAM-MASTER\SPOUTCAM-MASTER\BASECLASSES\WINPROJ2017\X64\RELEASE\RENBASE.OBJ
C:\USERS\BOS.BUTINT\DOWNLOADS\SPOUTCAM-MASTER\SPOUTCAM-MASTER\BASECLASSES\WINPROJ2017\X64\RELEASE\SCHEDULE.OBJ
C:\USERS\BOS.BUTINT\DOWNLOADS\SPOUTCAM-MASTER\SPOUTCAM-MASTER\BASECLASSES\WINPROJ2017\X64\RELEASE\SEEKPT.OBJ
C:\USERS\BOS.BUTINT\DOWNLOADS\SPOUTCAM-MASTER\SPOUTCAM-MASTER\BASECLASSES\WINPROJ2017\X64\RELEASE\SOURCE.OBJ
C:\USERS\BOS.BUTINT\DOWNLOADS\SPOUTCAM-MASTER\SPOUTCAM-MASTER\BASECLASSES\WINPROJ2017\X64\RELEASE\STRMCTL.OBJ
C:\USERS\BOS.BUTINT\DOWNLOADS\SPOUTCAM-MASTER\SPOUTCAM-MASTER\BASECLASSES\WINPROJ2017\X64\RELEASE\SYSCLOCK.OBJ
C:\USERS\BOS.BUTINT\DOWNLOADS\SPOUTCAM-MASTER\SPOUTCAM-MASTER\BASECLASSES\WINPROJ2017\X64\RELEASE\TRANSFRM.OBJ
C:\USERS\BOS.BUTINT\DOWNLOADS\SPOUTCAM-MASTER\SPOUTCAM-MASTER\BASECLASSES\WINPROJ2017\X64\RELEASE\TRANSIP.OBJ
C:\USERS\BOS.BUTINT\DOWNLOADS\SPOUTCAM-MASTER\SPOUTCAM-MASTER\BASECLASSES\WINPROJ2017\X64\RELEASE\VIDEOCTL.OBJ
C:\USERS\BOS.BUTINT\DOWNLOADS\SPOUTCAM-MASTER\SPOUTCAM-MASTER\BASECLASSES\WINPROJ2017\X64\RELEASE\VTRANS.OBJ
C:\USERS\BOS.BUTINT\DOWNLOADS\SPOUTCAM-MASTER\SPOUTCAM-MASTER\BASECLASSES\WINPROJ2017\X64\RELEASE\WINCTRL.OBJ
C:\USERS\BOS.BUTINT\DOWNLOADS\SPOUTCAM-MASTER\SPOUTCAM-MASTER\BASECLASSES\WINPROJ2017\X64\RELEASE\WINUTIL.OBJ
C:\USERS\BOS.BUTINT\DOWNLOADS\SPOUTCAM-MASTER\SPOUTCAM-MASTER\BASECLASSES\WINPROJ2017\X64\RELEASE\WXDEBUG.OBJ
C:\USERS\BOS.BUTINT\DOWNLOADS\SPOUTCAM-MASTER\SPOUTCAM-MASTER\BASECLASSES\WINPROJ2017\X64\RELEASE\WXLIST.OBJ
C:\USERS\BOS.BUTINT\DOWNLOADS\SPOUTCAM-MASTER\SPOUTCAM-MASTER\BASECLASSES\WINPROJ2017\X64\RELEASE\WXUTIL.OBJ
C:\WINDOWS\GLOBALIZATION\SORTING\SORTDEFAULT.NLS
